{
  "clusters": [
    {
      "nodes": [
        {
          "node": {
            "hostnames": {
              "manage": [
                "myk8stestserver-1"
              ],
              "storage": [
                "myk8sServerIP-1"
              ]
            },
            "zone": 1
          },
          "devices": [
            "/dev/vdb"
          ]
        },
        {
          "node": {
            "hostnames": {
              "manage": [
                "myk8stestserver-2"
              ],
              "storage": [
                "myk8sServerIP-2"
              ]
            },
            "zone": 1
          },
          "devices": [
            "/dev/vdb"
          ]
        },
        {
          "node": {
            "hostnames": {
              "manage": [
                "myk8stestserver-3"
              ],
              "storage": [
                "myk8sServerIP-3"
              ]
            },
            "zone": 1
          },
          "devices": [
            "/dev/vdb"
          ]
        }
      ]
    }
  ]
}
